%YAML 1.1
%TAG !u! tag:unity3d.com,2011:
--- !u!1001 &100100000
Prefab:
  m_ObjectHideFlags: 1
  serializedVersion: 2
  m_Modification:
    m_TransformParent: {fileID: 0}
    m_Modifications: []
    m_RemovedComponents: []
  m_ParentPrefab: {fileID: 0}
  m_RootGameObject: {fileID: 1686538325737960}
  m_IsPrefabParent: 1
--- !u!1 &1686538325737960
GameObject:
  m_ObjectHideFlags: 0
  m_PrefabParentObject: {fileID: 0}
  m_PrefabInternal: {fileID: 100100000}
  serializedVersion: 5
  m_Component:
  - component: {fileID: 4161822459890180}
  - component: {fileID: 212580543511769202}
  - component: {fileID: 60508431514118302}
  - component: {fileID: 50499976112712962}
  - component: {fileID: 114294652454324950}
  - component: {fileID: 114834723655037670}
  - component: {fileID: 114994029468281882}
  m_Layer: 0
  m_Name: Enemy
  m_TagString: Untagged
  m_Icon: {fileID: 0}
  m_NavMeshLayer: 0
  m_StaticEditorFlags: 0
  m_IsActive: 1
--- !u!4 &4161822459890180
Transform:
  m_ObjectHideFlags: 1
  m_PrefabParentObject: {fileID: 0}
  m_PrefabInternal: {fileID: 100100000}
  m_GameObject: {fileID: 1686538325737960}
  m_LocalRotation: {x: 0, y: 0, z: 0, w: 1}
  m_LocalPosition: {x: 60.718872, y: 1.2817168, z: 0}
  m_LocalScale: {x: 1, y: 1, z: 1}
  m_Children: []
  m_Father: {fileID: 0}
  m_RootOrder: 0
  m_LocalEulerAnglesHint: {x: 0, y: 0, z: 0}
--- !u!50 &50499976112712962
Rigidbody2D:
  serializedVersion: 4
  m_ObjectHideFlags: 1
  m_PrefabParentObject: {fileID: 0}
  m_PrefabInternal: {fileID: 100100000}
  m_GameObject: {fileID: 1686538325737960}
  m_BodyType: 0
  m_Simulated: 1
  m_UseFullKinematicContacts: 0
  m_UseAutoMass: 0
  m_Mass: 1
  m_LinearDrag: 0
  m_AngularDrag: 0
  m_GravityScale: 1
  m_Material: {fileID: 0}
  m_Interpolate: 0
  m_SleepingMode: 1
  m_CollisionDetection: 0
  m_Constraints: 6
--- !u!60 &60508431514118302
PolygonCollider2D:
  m_ObjectHideFlags: 1
  m_PrefabParentObject: {fileID: 0}
  m_PrefabInternal: {fileID: 100100000}
  m_GameObject: {fileID: 1686538325737960}
  m_Enabled: 1
  m_Density: 1
  m_Material: {fileID: 0}
  m_IsTrigger: 1
  m_UsedByEffector: 0
  m_UsedByComposite: 0
  m_Offset: {x: 0, y: 0}
  m_SpriteTilingProperty:
    border: {x: 0, y: 0, z: 0, w: 0}
    pivot: {x: 0.5, y: 0.5}
    oldSize: {x: 2.65, y: 2.85}
    newSize: {x: 2.65, y: 2.85}
    adaptiveTilingThreshold: 0.5
    drawMode: 0
    adaptiveTiling: 0
  m_AutoTiling: 0
  m_Points:
    m_Paths:
    - - {x: -0.21499999, y: -0.955}
      - {x: -0.155, y: -0.91499996}
      - {x: -0.005, y: -0.645}
      - {x: 0.044999998, y: -0.73499995}
      - {x: 0.095, y: -0.885}
      - {x: 0.13499999, y: -0.945}
      - {x: 0.195, y: -0.955}
      - {x: 0.195, y: -1.135}
      - {x: 0.235, y: -1.1949999}
      - {x: 0.42499998, y: -1.345}
      - {x: 0.525, y: -1.395}
      - {x: 0.685, y: -1.415}
      - {x: 0.72499996, y: -1.2149999}
      - {x: 0.555, y: -1.0649999}
      - {x: 0.505, y: -1.045}
      - {x: 0.545, y: -0.825}
      - {x: 0.59499997, y: -0.675}
      - {x: 0.60499996, y: -0.515}
      - {x: 0.555, y: -0.49499997}
      - {x: 0.555, y: -0.36499998}
      - {x: 0.45499998, y: -0.16499999}
      - {x: 0.355, y: -0.015}
      - {x: 0.305, y: 0.005}
      - {x: 0.345, y: 0.24499999}
      - {x: 0.415, y: 0.36499998}
      - {x: 0.39499998, y: 0.45499998}
      - {x: 0.905, y: 0.45499998}
      - {x: 0.905, y: 0.415}
      - {x: 1.0649999, y: 0.295}
      - {x: 1.285, y: 0.295}
      - {x: 1.3249999, y: 0.33499998}
      - {x: 1.3249999, y: 0.59499997}
      - {x: 1.225, y: 0.695}
      - {x: 1.125, y: 0.745}
      - {x: 0.36499998, y: 0.815}
      - {x: 0.355, y: 0.935}
      - {x: 0.305, y: 0.955}
      - {x: 0.305, y: 1.0849999}
      - {x: 0.265, y: 1.145}
      - {x: 0.155, y: 1.2149999}
      - {x: 0.155, y: 1.285}
      - {x: 0.095, y: 1.425}
      - {x: -0.065, y: 1.425}
      - {x: -0.21499999, y: 1.165}
      - {x: -0.265, y: 1.145}
      - {x: -0.36499998, y: 0.935}
      - {x: -0.345, y: 0.79499996}
      - {x: -0.48499998, y: 0.805}
      - {x: -0.515, y: 0.755}
      - {x: -1.165, y: 0.745}
      - {x: -1.305, y: 0.675}
      - {x: -1.3249999, y: 0.615}
      - {x: -1.3249999, y: 0.355}
      - {x: -1.275, y: 0.305}
      - {x: -1.2149999, y: 0.295}
      - {x: -1.0649999, y: 0.295}
      - {x: -0.91499996, y: 0.39499998}
      - {x: -0.895, y: 0.445}
      - {x: -0.39499998, y: 0.45499998}
      - {x: -0.405, y: 0.36499998}
      - {x: -0.355, y: 0.265}
      - {x: -0.305, y: 0.24499999}
      - {x: -0.33499998, y: -0.005}
      - {x: -0.45499998, y: -0.16499999}
      - {x: -0.545, y: -0.375}
      - {x: -0.59499997, y: -0.525}
      - {x: -0.60499996, y: -0.73499995}
      - {x: -0.555, y: -0.755}
      - {x: -0.59499997, y: -1.0749999}
      - {x: -0.645, y: -1.225}
      - {x: -0.655, y: -1.385}
      - {x: -0.615, y: -1.425}
      - {x: -0.42499998, y: -1.425}
      - {x: -0.355, y: -1.365}
      - {x: -0.255, y: -1.225}
      - {x: -0.255, y: -0.945}
--- !u!114 &114294652454324950
MonoBehaviour:
  m_ObjectHideFlags: 1
  m_PrefabParentObject: {fileID: 0}
  m_PrefabInternal: {fileID: 100100000}
  m_GameObject: {fileID: 1686538325737960}
  m_Enabled: 1
  m_EditorHideFlags: 0
  m_Script: {fileID: 11500000, guid: 6004e349bf1063045b45112d5a25ff90, type: 3}
  m_Name: 
  m_EditorClassIdentifier: 
  targetTf: {fileID: 0}
  tf: {fileID: 4161822459890180}
  speed: 3
  sr: {fileID: 212580543511769202}
  currentState: 0
--- !u!114 &114834723655037670
MonoBehaviour:
  m_ObjectHideFlags: 1
  m_PrefabParentObject: {fileID: 0}
  m_PrefabInternal: {fileID: 100100000}
  m_GameObject: {fileID: 1686538325737960}
  m_Enabled: 1
  m_EditorHideFlags: 0
  m_Script: {fileID: 11500000, guid: f36dfc897053fd241b6f7ea2b57563ff, type: 3}
  m_Name: 
  m_EditorClassIdentifier: 
  hearingModifier: 1
  fieldOfView: 1
  viewDistance: 1
  tf: {fileID: 4161822459890180}
  targetTf: {fileID: 0}
  nm: {fileID: 0}
--- !u!114 &114994029468281882
MonoBehaviour:
  m_ObjectHideFlags: 1
  m_PrefabParentObject: {fileID: 0}
  m_PrefabInternal: {fileID: 100100000}
  m_GameObject: {fileID: 1686538325737960}
  m_Enabled: 1
  m_EditorHideFlags: 0
  m_Script: {fileID: 11500000, guid: 7c5bf90d35218fa4faa18d0dc1d407c2, type: 3}
  m_Name: 
  m_EditorClassIdentifier: 
  targetTf: {fileID: 0}
  speed: 0
  isAlwaysSeeking: 0
  isDirectional: 0
--- !u!212 &212580543511769202
SpriteRenderer:
  m_ObjectHideFlags: 1
  m_PrefabParentObject: {fileID: 0}
  m_PrefabInternal: {fileID: 100100000}
  m_GameObject: {fileID: 1686538325737960}
  m_Enabled: 1
  m_CastShadows: 0
  m_ReceiveShadows: 0
  m_DynamicOccludee: 1
  m_MotionVectors: 1
  m_LightProbeUsage: 1
  m_ReflectionProbeUsage: 1
  m_Materials:
  - {fileID: 10754, guid: 0000000000000000f000000000000000, type: 0}
  m_StaticBatchInfo:
    firstSubMesh: 0
    subMeshCount: 0
  m_StaticBatchRoot: {fileID: 0}
  m_ProbeAnchor: {fileID: 0}
  m_LightProbeVolumeOverride: {fileID: 0}
  m_ScaleInLightmap: 1
  m_PreserveUVs: 0
  m_IgnoreNormalsForChartDetection: 0
  m_ImportantGI: 0
  m_StitchLightmapSeams: 0
  m_SelectedEditorRenderState: 0
  m_MinimumChartSize: 4
  m_AutoUVMaxDistance: 0.5
  m_AutoUVMaxAngle: 89
  m_LightmapParameters: {fileID: 0}
  m_SortingLayerID: 0
  m_SortingLayer: 0
  m_SortingOrder: 0
  m_Sprite: {fileID: 21300000, guid: dc2ec0c6e519f2049b4f5e93aa23dad0, type: 3}
  m_Color: {r: 1, g: 1, b: 1, a: 1}
  m_FlipX: 0
  m_FlipY: 0
  m_DrawMode: 0
  m_Size: {x: 2.65, y: 2.85}
  m_AdaptiveModeThreshold: 0.5
  m_SpriteTileMode: 0
  m_WasSpriteAssigned: 1
  m_MaskInteraction: 0
